Wed Jun 07 19:45:36 MSK 2017 Group 1 - 2017-PI-I (students count is 5, Head is Komarov A.E., Average mark is 3.1434433)
Wed Jun 07 19:45:36 MSK 2017 Student - ID: 3; FIO: Sidorov C.C.; AVERAGE MARK: 3.1
Wed Jun 07 19:45:36 MSK 2017 Student - ID: 4; FIO: Ali-Baba I.J.; AVERAGE MARK: 3.1666667
Wed Jun 07 19:45:36 MSK 2017 Student - ID: 6; FIO: Smirnova N.A.; AVERAGE MARK: 3.0
Wed Jun 07 19:45:36 MSK 2017 Student - ID: 9; FIO: Komarov A.E.; AVERAGE MARK: 3.3076923
Wed Jun 07 19:45:36 MSK 2017 Student - ID: 11; FIO: Borisov M.Y.; AVERAGE MARK: 3.142857
Wed Jun 07 19:45:36 MSK 2017 Group 2 - 2017-PI-II (students count is 3, Head is Sheglova F.T., Average mark is 3.1018517)
Wed Jun 07 19:45:36 MSK 2017 Student - ID: 1; FIO: Ivanov I.I.; AVERAGE MARK: 3.0833333
Wed Jun 07 19:45:36 MSK 2017 Student - ID: 15; FIO: Sheglova F.T.; AVERAGE MARK: 3.2222223
Wed Jun 07 19:45:36 MSK 2017 Student - ID: 16; FIO: Somova N.I.; AVERAGE MARK: 3.0
Wed Jun 07 19:45:36 MSK 2017 Group 3 - 2017-PI-III (students count is 8, Head is Petrov L.L., Average mark is 3.00072)
Wed Jun 07 19:45:36 MSK 2017 Student - ID: 2; FIO: Petrov L.L.; AVERAGE MARK: 3.3636363
Wed Jun 07 19:45:36 MSK 2017 Student - ID: 5; FIO: Tikhonova E.I.; AVERAGE MARK: 2.8333333
Wed Jun 07 19:45:36 MSK 2017 Student - ID: 7; FIO: Smirnov S.A.; AVERAGE MARK: 3.0714285
Wed Jun 07 19:45:36 MSK 2017 Student - ID: 8; FIO: Tarasov I.I.; AVERAGE MARK: 2.6
Wed Jun 07 19:45:36 MSK 2017 Student - ID: 10; FIO: Kotov F.S.; AVERAGE MARK: 3.142857
Wed Jun 07 19:45:36 MSK 2017 Student - ID: 12; FIO: Chkalov Y.G.; AVERAGE MARK: 3.0
Wed Jun 07 19:45:36 MSK 2017 Student - ID: 13; FIO: Fiodorov E.P.; AVERAGE MARK: 3.0714285
Wed Jun 07 19:45:36 MSK 2017 Student - ID: 14; FIO: Lisin A.A.; AVERAGE MARK: 2.9230769
