{			
	"students"	:[	
{	"id":	1	,
	"fio":	"Ivanov I.I."	},
{	"id":	2	,
	"fio":	"Petroff I.I."	},
{	"id":	3	,
	"fio":	"Nemiroff N.N."	},
{	"id":	4	,
	"fio":	"Sidoroff N.N."	},
{	"id":	5	,
	"fio":	"Abama N.N."	},
{	"id":	6	,
	"fio":	"Alabama N.N."	},
{	"id":	7	,
	"fio":	"Johnson J.N."	},
{	"id":	8	,
	"fio":	"Paterson J.N."	},
{	"id":	9	,
	"fio":	"McCormic J.N."	},
{	"id":	10	,
	"fio":	"Abu-Ibn-Abu J.N."	},
{	"id":	11	,
	"fio":	"Ibn-Huisan K.G."	},
{	"id":	12	,
	"fio":	"Sweenson K.G."	},
{	"id":	13	,
	"fio":	"Karlaapaaneen K.G."	},
{	"id":	14	,
	"fio":	"Varlaapaaneen K.G."	},
{	"id":	15	,
	"fio":	"McKitty K.G."	},
{	"id":	16	,
	"fio":	"McKotty A.G."	},
{	"id":	17	,
	"fio":	"Hoge A.J."	},
{	"id":	18	,
	"fio":	"Eggs P.J."	},
{	"id":	19	,
	"fio":	"Marsianni P.J."	},
{	"id":	20	,
	"fio":	"Larsianni L.J."	},
{	"id":	21	,
	"fio":	"Dumbledor L.J."	},
{	"id":	22	,
	"fio":	"Potter G.J."	},
{	"id":	23	,
	"fio":	"Slizerin P.K."	},
{	"id":	24	,
	"fio":	"Kaplan P.K."	},
{	"id":	25	,
	"fio":	"Baklan P.K."	},
{	"id":	26	,
	"fio":	"MightyDuck P.K."	},
{	"id":	27	,
	"fio":	"McDuck S.K."	},
{	"id":	28	,
	"fio":	"McDuck S.K."	},
{	"id":	29	,
	"fio":	"Billy S.K."	},
{	"id":	30	,
	"fio":	"Villy S.K."	},
{	"id":	31	,
	"fio":	"Dilly S.K."	},
{	"id":	32	,
	"fio":	"Milly S.K."	}
	]		
}			
