Americano;12;90
Espresso;15;90
Coffee With Milk;15;130
Cappuccino;18;130
Latte;20;130
Hot Chocolate;25;150
Milk Chocolate;28;150
Double Chocolate;30;150
Cacao;35;150
Green Tea;7;130
Black Tea;10;130
Red tea;12;130
White tea;15;130