01, Паблова Н. А.
02, Тимофеева С. А.
03, Голованова Н. К.
04, Юревна М. Ф.
05, Густова А. М.
06, Каморова Ю. Т.
07, Журавева. М. В.
08, Бенда Л. И.
09, Поспелов А. Н.
10, Зыкина Е. П.
11, Крупяхина О. З.
12, Коткова М. Ж.
13, Захорова М. В.
14, Цой А. Я.
15, Канаев А. Р.
16, Мичел Е. Е.
17, Боголепова Е. Д.
18, Маковаева О. П.
19, Лебедев Д. А.
20, Гаврилова Д. В.
21, Кричигина Е. Г.
22, Лебединская А. А.
23, Новикова М. Д.
24, Мальцев А. К.
25, Сосина Л. Н.
26, Евстифеен А.
27, Быбин Н. Р.
28, Праотцова В. А.
29, Котяева А. Ч.
30, Сергевна К. В.
